Place,Name,Sex,BirthDate,Equipment,Division,BodyweightKg,WeightClassKg,Squat1Kg,Squat2Kg,Squat3Kg,Best3SquatKg,Bench1Kg,Bench2Kg,Bench3Kg,Best3BenchKg,Deadlift1Kg,Deadlift2Kg,Deadlift3Kg,Best3DeadliftKg,TotalKg,Event,Team
1,Chon Min Kyong,F,1983-05-06,Raw,M1,62.8,67.5,90,95,100,100,40,45,-50,45,100,110,120,120,265,SBD,DOMO STRENGTH
NS,Kimminju,F,1998-06-23,Wraps,O,,,,,,,,,,,,,,,,SBD,About
NS,Lee Song,F,1993-03-17,Raw,O,,,,,,,,,,,,,,,,SBD,Strength museum
1,Jieunhan,F,1990-11-08,Raw,O,47.9,48,85,90,95,95,47.5,50,52.5,52.5,115,120,-127.5,120,267.5,SBD,rhinostrength
DQ,Jung Ye Eun,F,1994-09-09,Raw,O,43.9,44,-60,-60,-60,,-40,40,-42.5,40,95,97.5,-100,97.5,,SBD,White Gym
1,Eunchea Song,F,1995-02-06,Wraps,O,50.1,52,85,95,105,105,-45,-45,45,45,100,115,120,120,270,SBD,
2,Hyunjin Kim,F,1998-10-17,Wraps,O,51.5,52,95,-100,100,100,-45,-45,45,45,105,-115,-115,105,250,SBD,SNU JUDO
3,Yeongrok Jeong,F,1996-02-11,Raw,O,52,52,90,92.5,95,95,40,45,-50,45,100,105,-110,105,245,SBD,QURATORS THE GYM
4,Ko Kyeol,F,1991-10-05,Wraps,O,51.5,52,-85,85,95,95,37.5,40,-45,40,100,-110,-110,100,235,SBD,Jamaica fitness
5,Inkyung Cho,F,1988-11-13,Raw,O,48.6,52,60,-65,65,65,-35,35,-40,35,82.5,-87.5,-87.5,82.5,182.5,SBD,Moonâ€™s jewel box
DQ,Sooim Lee,F,1988-06-30,Raw,O,51.2,52,60,-67.5,67.5,67.5,-30,-35,-35,,75,82.5,90,90,,SBD,Moon's jewel box
1,Jeon Minkyung,F,1992-08-03,Raw,O,55.4,56,107.5,112.5,-117.5,112.5,-60,60,65,65,115,122.5,130,130,307.5,SBD,
2,Ha Joo Ri,F,1996-07-03,Raw,O,54.8,56,-90,97.5,102.5,102.5,45,50,52.5,52.5,115,120,127.5,127.5,282.5,SBD,EZ Powerlifting
3,Seunghee Lee,F,1995-07-10,Raw,O,54,56,90,-97.5,100,100,45,47.5,-50,47.5,-97.5,105,-110,105,252.5,SBD,EZ Powerlifting
4,Jungdahye,F,1993-01-25,Raw,O,56,56,72.5,80,-85,80,45,50,-55,50,97.5,102.5,-110,102.5,232.5,SBD,
5,Joonsun Shin,F,1989-05-29,Raw,O,56,56,67.5,75,80,80,30,35,-40,35,95,102.5,110,110,225,SBD,Moonâ€™s jewel box
DQ,Jiwon Hwang,F,1998-02-15,Raw,O,53.8,56,,,,,57.5,60,-62.5,60,,,,,,SBD,FirstMind
1,Hyejin Kim,F,1997-10-25,Raw,O,56.2,60,125,132.5,-137.5,132.5,-62.5,62.5,-65,62.5,130,135,142.5,142.5,337.5,SBD,
2,Seuli Ku,F,1989-01-01,Raw,O,59.3,60,112.5,120,125,125,62.5,-67.5,67.5,67.5,117.5,122.5,130,130,322.5,SBD,EZ Powerlifting
3,Kim Kyung Jin,F,1983-08-16,Wraps,O,58.2,60,-110,120,125,125,60,-65,-65,60,125,130,135,135,320,SBD,
4,Oh Eunji,F,1991-12-03,Raw,O,59,60,105,-112.5,115,115,55,60,62.5,62.5,130,137.5,142.5,142.5,320,SBD,EZ Powerlifting
5,Jiyun Oh,F,1999-05-03,Raw,O,56.4,60,95,97.5,,97.5,-52.5,52.5,-57.5,52.5,102.5,110,115,115,265,SBD,Team Ant
6,Sebeen Geum,F,1997-07-12,Raw,O,59.7,60,100,-105,-105,100,40,-42.5,-42.5,40,100,105,-110,105,245,SBD,Crossfit Pangyo. ave
7,Nahyun Kim,F,1995-08-02,Raw,O,57.9,60,75,-80,-80,75,-40,45,47.5,47.5,100,105,110,110,232.5,SBD,STADION
8,Lee Yongkyung,F,1991-05-02,Raw,O,59.9,60,-70,75,-80,75,-45,-45,45,45,90,100,105,105,225,SBD,
1,Kimhyunji,F,1995-12-14,Raw,O,66.5,67.5,115,120,125,125,-72.5,72.5,75,75,140,145,152.5,152.5,352.5,SBD,FM Gym
2,Jungyun Choi,F,2000-09-18,Raw,O,64.9,67.5,107.5,112.5,117.5,117.5,57.5,65,-67.5,65,105,110,-115,110,292.5,SBD,POSTECH
3,Jihyun Lee,F,1987-12-01,Raw,O,64.5,67.5,-80,85,90,90,35,40,-45,40,110,115,120,120,250,SBD,
1,Hwajung Son,F,1993-08-14,Raw,O,74.3,75,115,122.5,-125,122.5,52.5,57.5,-60,57.5,130,140,-145,140,320,SBD,EZ Powerlifting & sstgym
1,Youngeun Lee,F,1988-10-22,Raw,O,79.8,82.5,-95,95,100,100,40,45,50,50,90,105,110,110,260,SBD,Momgagym Guui
1,Haeun Jang,M,2008-05-09,Raw,J,74.65,75,125,-132.5,137.5,137.5,90,97.5,102.5,102.5,170,185,200,200,440,SBD,
2,Choyounsin,M,2006-09-10,Raw,J,74.55,75,127.5,132.5,-142.5,132.5,72.5,80,82.5,82.5,150,165,172.5,172.5,387.5,SBD,Momgagym
1,Hong Seongdo,M,2005-06-01,Wraps,J,80,82.5,120,130,137.5,137.5,60,70,75,75,120,130,140,140,352.5,SBD,Bumyoung High School
DQ,Byun Heejae,M,2006-06-09,Raw,J,81.75,82.5,-175,180,-187.5,180,-100,-100,-100,,180,190,-200,190,,SBD,
1,Hajinsoo,M,2005-04-17,Wraps,J,88.65,90,207.5,-220,,207.5,90,95,-102.5,95,160,165,170,170,472.5,SBD,KASA
1,Seungmin Chun,M,2005-01-05,Raw,J,102.65,110,177.5,190,202.5,202.5,87.5,95,102.5,102.5,205,220,235,235,540,SBD,Prime Strength
NS,Lee Byoung Ju,M,1980-01-01,Wraps,M,,,,,,,,,,,,,,,,SBD,STADION
1,Lim Cheol Hee,M,1977-02-02,Raw,M,81.75,82.5,130,-140,145,145,80,87.5,-92.5,87.5,170,180,187.5,187.5,420,SBD,
1,Youngkuk Kwon,M,1982-11-04,Wraps,M,89.35,90,170,-175,185,185,110,120,-127.5,120,200,212.5,222.5,222.5,527.5,SBD,
1,Kim Hyun,M,1981-01-21,Raw,M,95,100,185,195,200,200,95,100,105,105,200,210,220,220,525,SBD,EZ Powerlifting
2,Kim Ji Woon,M,1983-12-29,Raw,M,93.55,100,170,180,190,190,100,110,-115,110,-190,-200,205,205,505,SBD,DOMO Strength/ Honest Lifters
NS,Kwon Kyoung Oh,M,1983-01-14,Raw,O,,,,,,,,,,,,,,,,SBD,Dr. Strength
NS,Kyungtae Kim,M,1987-12-23,Raw,O,,,,,,,,,,,,,,,,SBD,
NS,Kim Woo Young,M,2000-04-16,Raw,O,,,,,,,,,,,,,,,,SBD,
NS,Jihun Kim,M,1987-08-11,Raw,O,,,,,,,,,,,,,,,,SBD,Atlas
NS,Jinsoo Kim,M,1991-03-19,Raw,O,,,,,,,,,,,,,,,,SBD,EZ Powerlifting
NS,Park Jae Han,M,1989-02-12,Wraps,O,,,,,,,,,,,,,,,,SBD,
NS,Baehyogeun,M,2000-12-28,Raw,O,,,,,,,,,,,,,,,,SBD,
NS,Shin Hwayoon,M,1988-10-30,Raw,O,,,,,,,,,,,,,,,,SBD,Total Strength
NS,Hyeongtack Shim,M,1991-05-21,Raw,O,,,,,,,,,,,,,,,,SBD,
NS,Seokin Oh,M,1993-11-30,Raw,O,,,,,,,,,,,,,,,,SBD,
NS,Ganghee Lee,M,1997-12-09,Raw,O,,,,,,,,,,,,,,,,SBD,Honest Lifters
NS,Lee Deok Hwan,M,1991-05-14,Wraps,O,,,,,,,,,,,,,,,,SBD,Dukgym
NS,Hankyul Lee,M,1994-01-01,Wraps,O,,,,,,,,,,,,,,,,SBD,
NS,Wooyoung Choi,M,1993-03-30,Raw,O,,,,,,,,,,,,,,,,SBD,CrossFit Marvel
NS,Wonhee Han,M,1989-11-04,Wraps,O,,,,,,,,,,,,,,,,SBD,Momgagym/Sweker
1,Lee Byong Joo,M,1996-09-05,Wraps,O,59,60,160,-167.5,175,175,97.5,100,-102.5,100,160,165,-172.5,165,440,SBD,Duck Gym
2,Nam Gyeongho,M,2003-01-30,Raw,O,59.74,60,-140,147.5,-155,147.5,80,90,95,95,150,167.5,-185,167.5,410,SBD,Momgagym
3,Choe Jae Gwan,M,2003-07-28,Wraps,O,59.7,60,125,130,-137.5,130,-85,90,-92.5,90,152.5,162.5,-170,162.5,382.5,SBD,TOHELLWITH
4,Lee Sangwoo,M,1994-02-14,Raw,O,59.46,60,-140,145,-150,145,80,82.5,-90,82.5,145,150,152.5,152.5,380,SBD,
1,Lee Hyo Sang,M,1997-10-24,Raw,O,66.2,67.5,180,182.5,-190,182.5,125,130,135,135,182.5,192.5,-197.5,192.5,510,SBD,Muscle Top Fitness
2,Jinuk Jeong,M,1995-12-06,Wraps,O,66.9,67.5,175,180,185,185,-120,120,125,125,200,-205,-205,200,510,SBD,
3,Seo Hyeongin,M,1998-08-22,Raw,O,66.9,67.5,170,180,-192.5,180,-105,-110,110,110,205,215,-222.5,215,505,SBD,
4,Kang Bon Hyang,M,1996-08-13,Wraps,O,66.85,67.5,162.5,170,175,175,-102.5,102.5,-107.5,102.5,195,-202.5,-202.5,195,472.5,SBD,sstgym
5,Jongwon Yun,M,1989-12-13,Wraps,O,62.8,67.5,130,137.5,-142.5,137.5,100,-105,-105,100,150,155,160,160,397.5,SBD,Ace Fit
6,Kim Min Ha,M,1985-05-03,Raw,O,65.35,67.5,125,135,145,145,72.5,80,-85,80,147.5,155,167.5,167.5,392.5,SBD,EZ Powerlifting
DQ,Lee Jonggeon,M,1996-03-01,Raw,O,66.25,67.5,170,175,-180,175,-105,-105,-105,,200,210,-215,210,,SBD,Shining GYM
1,Lim Junghoon,M,1988-10-21,Wraps,O,74.2,75,195,205,-212.5,205,122.5,127.5,130,130,230,-240,240,240,575,SBD,sstgym
2,Kang Jin Seuk,M,1998-06-05,Raw,O,73.7,75,192.5,200,-205,200,122.5,127.5,-135,127.5,205,-212.5,-215,205,532.5,SBD,SINABRO
3,Lim Jawon,M,2000-07-07,Wraps,O,73.95,75,-190,190,200,200,105,-110,,105,210,220,-230,220,525,SBD,SNU JUDO
4,Jeon Sung Min,M,1996-11-04,Raw,O,72.9,75,175,182.5,187.5,187.5,122.5,125,127.5,127.5,195,200,-210,200,515,SBD,Muscle Top Fitness
5,Wang Seunghyeon,M,1999-02-10,Raw,O,73.15,75,180,185,190,190,120,125,130,130,180,185,-195,185,505,SBD,Radio Kids
6,Lee Soo Ho,M,1997-12-17,Raw,O,71.15,75,-175,182.5,-192.5,182.5,-80,85,90,90,-195,195,202.5,202.5,475,SBD,kessoku band
7,Youngmin Kwak,M,1984-10-02,Wraps,O,74.1,75,150,-165,170,170,110,-120,-120,110,185,195,-205,195,475,SBD,
8,Kim Soo Hwan,M,1998-11-02,Raw,O,74.6,75,170,-180,-180,170,107.5,-115,-115,107.5,190,-202.5,-202.5,190,467.5,SBD,
9,Jeong-Jae-Sik,M,1998-02-24,Raw,O,72.95,75,-160,160,-165,160,-110,-110,110,110,165,170,180,180,450,SBD,Muscle Top Fitness
10,Park Ji Hoon,M,1998-08-23,Raw,O,70.95,75,150,162.5,-172.5,162.5,-85,87.5,-90,87.5,180,190,195,195,445,SBD,
11,Park Se Young,M,1999-07-17,Wraps,O,73,75,170,-180,-185,170,105,112.5,-120,112.5,160,-165,-165,160,442.5,SBD,
12,Kimsullin,M,2000-05-03,Raw,O,72.2,75,-150,150,-152.5,150,-95,-95,95,95,150,-160,160,160,405,SBD,
DQ,Zhou Kangjia,M,2000-01-01,Raw,O,71.05,75,-135,145,-150,145,-105,-105,-105,,180,-190,-190,180,,SBD,
DQ,Hyoungjoo Park,M,1990-06-15,Raw,O,72.1,75,-210,-210,-210,,-110,-110,-110,,-220,-220,-220,,,SBD,
1,Ge Sang,M,1995-02-20,Raw,O,81.65,82.5,-190,190,195,195,160,-170,-170,160,260,270,-275,270,625,SBD,
2,Shin Hwa Jin,M,1989-11-17,Raw,O,81.55,82.5,220,-225,230,230,130,-132.5,-132.5,130,230,-240,240,240,600,SBD,Muscle Top Fitness
3,Kim Gitae,M,1997-11-25,Raw,O,81.6,82.5,-195,200,210,210,137.5,145,-150,145,220,-230,-235,220,575,SBD,
4,Joe Jeung Bin,M,1990-07-29,Raw,O,82.1,82.5,197.5,-205,212.5,212.5,125,-132.5,-132.5,125,220,-230,-230,220,557.5,SBD,EZ Powerlifting
5,Baek Seokjin,M,2002-07-23,Raw,O,81.2,82.5,-155,160,165,165,100,107.5,112.5,112.5,170,182.5,187.5,187.5,465,SBD,JYW KICKBOXING
6,Kyudong Kim,M,1987-06-27,Raw,O,82.35,82.5,155,162.5,170,170,-100,105,110,110,185,-192.5,-195,185,465,SBD,KINGS
7,Jia Xuekun,M,2000-01-13,Raw,O,79.3,82.5,140,145,150,150,105,-110,110,110,180,200,-210,200,460,SBD,
8,Ha Byeonghyeop,M,1997-01-20,Raw,O,80.6,82.5,-155,155,-165,155,115,117.5,-120,117.5,175,-180,-180,175,447.5,SBD,
DQ,Cheolmin Kim,M,1997-08-30,Raw,O,80.75,82.5,190,195,200,200,-130,-135,-135,,210,220,-230,220,,SBD,
DQ,Lee Hyunki,M,2000-12-28,Raw,O,81.85,82.5,-192.5,-200,-200,,110,115,-120,115,205,215,220,220,,SBD,SINABRO
1,Ji Soo Lee,M,1998-03-01,Raw,O,87.95,90,247.5,260,270,270,147.5,152.5,160,160,265,277.5,290,290,720,SBD,Team Ant
2,Kim Eonjun,M,1994-09-19,Wraps,O,89.6,90,225,232.5,240,240,152.5,160,165,165,250,-260,260,260,665,SBD,TEAM SUTSAJA
3,Kim Hyeongyong,M,1987-01-11,Raw,O,87.65,90,210,230,235,235,140,150,155,155,200,210,220,220,610,SBD,
4,Choi Jeongheon,M,1992-06-08,Raw,O,88.3,90,200,212.5,220,220,110,115,-120,115,235,252.5,-265,252.5,587.5,SBD,
5,Park Gun Tae,M,1991-01-15,Raw,O,89.55,90,190,195,200,200,-125,125,130,130,-230,230,242.5,242.5,572.5,SBD,
6,Lee Hyungseok,M,1992-03-16,Raw,O,87.5,90,202.5,215,-220,215,117.5,122.5,127.5,127.5,202.5,205,-207.5,205,547.5,SBD,STADION
7,Seungwan Kim,M,1997-04-01,Raw,O,84.6,90,192.5,197.5,210,210,105,112.5,120,120,197.5,205,-207.5,205,535,SBD,CPL
8,Chanyeong Yu,M,1996-09-30,Raw,O,87.35,90,200,210,,210,60,,,60,210,230,240,240,510,SBD,RPT GYM
9,Kang Han Bin,M,1991-10-25,Raw,O,88.4,90,190,195,200,200,90,100,105,105,190,195,200,200,505,SBD,
10,Hyoungseok Goh,M,1992-03-13,Raw,O,85.35,90,165,-177.5,180,180,90,95,100,100,170,175,177.5,177.5,457.5,SBD,CrossFit Pangyo AVE
11,Kim Jongjin,M,1994-11-21,Raw,O,88.15,90,152.5,162.5,-172.5,162.5,-90,90,-100,90,190,200,-210,200,452.5,SBD,
DQ,Kimdongyoung,M,1996-09-17,Raw,O,87.6,90,,,,,100,120,125,125,,,,,,SBD,Muscle Top Fitness
DQ,Jin Hyeok Han,M,1997-02-07,Raw,O,88.1,90,-190,190,-200,190,-120,-125,-125,,200,210,,210,,SBD,
DQ,Francis Nicks,M,1995-01-17,Wraps,O,89.1,90,277.5,-290,-290,277.5,-147.5,-157.5,-157.5,,252.5,262.5,272.5,272.5,,SBD,Honest Lifters
1,Jong-Hyun Hwang,M,1994-04-28,Raw,O,99.3,100,255,270,280,280,152.5,160,165,165,300,315,-322.5,315,760,SBD,Unlimited Strength
2,Jae Young Lee,M,1991-09-21,Raw,O,98.05,100,230,240,245,245,150,155,157.5,157.5,260,270,-275,270,672.5,SBD,Atlas
3,Hantaehee,M,2003-03-07,Raw,O,99.5,100,-210,215,-220,215,130,-135,-135,130,220,-230,-230,220,565,SBD,Joongbu University
4,Myungkyu Lee,M,1990-10-07,Raw,O,97.35,100,197.5,210,,210,-132.5,132.5,140,140,205,-220,-220,205,555,SBD,
5,Jisung Im,M,1989-09-23,Raw,O,97.3,100,150,162.5,170,170,115,120,127.5,127.5,160,170,180,180,477.5,SBD,EZ Powerlifting
DQ,Heo Jaehyuk,M,1988-05-07,Wraps,O,99.5,100,167.5,172.5,177.5,177.5,-110,-110,-110,,190,200,210,210,,SBD,Crosslifting
1,Leon,M,1994-08-20,Raw,O,108.5,110,250,260,265,265,170,-175,175,175,260,-270,-270,260,700,SBD,Hanmaeum Atheltic Club
2,Park Jeonghyo,M,1994-10-05,Raw,O,109.25,110,240,-250,255,255,160,170,180,180,240,255,-270,255,690,SBD,
3,Moon Gun Joo,M,1992-06-12,Wraps,O,108,110,-235,240,247.5,247.5,-150,-150,150,150,235,240,242.5,242.5,640,SBD,James Gym
4,Dongheon Yi,M,1997-08-18,Raw,O,108.35,110,220,230,240,240,130,140,-145,140,230,245,260,260,640,SBD,SNUJUMO
1,You Woo Sung,M,1990-02-24,Raw,O,117.8,125,300,310,-315,310,170,180,-185,180,280,300,-310,300,790,SBD,Bodypower Gym
2,Edward Byunghyun Kim,M,1994-02-18,Raw,O,112.9,125,200,210,-220,210,125,132.5,-135,132.5,260,-270,-270,260,602.5,SBD,
