Place,Name,Sex,Event,BirthDate,Equipment,Division,WeightClassKg,BodyweightKg,Bench4Kg,Best3BenchKg,Deadlift4Kg,Best3DeadliftKg,TotalKg,Country
1,Lilien Pacova,F,BD,2006-07-11,Raw,T16-17,67.5,62,,52.5,,135,187.5,Slovakia
1,Justyna Stasiowska,F,BD,1988-04-14,Raw,Submasters,60,59.6,,75,175,170,245,Poland
1,Bettina Razzouki-Korkis,F,BD,1965-08-28,Raw,M4,60,56.3,,82.5,,151,233.5,Poland
1,Brigitte Maczka,F,BD,1961-10-05,Raw,M5,67.5,65,,37.5,,105,142.5,Germany
1,Alik Khachatryan,M,BD,2008-02-02,Raw,T13-15,60,59.8,,80,,140,220,Armenia
1,Bartosz Damek,M,BD,2008-03-19,Raw,T13-15,75,73.3,,97.5,212.5,210,307.5,Poland
1,Jakub Dyrszka,M,BD,2006-09-18,Raw,T16-17,75,72.2,,105,,192.5,297.5,Poland
2,Artur Vardanyan,M,BD,2006-01-08,Raw,T16-17,75,72.5,,90,,195,285,Armenia
1,Artak Avetisyan,M,BD,2005-10-17,Raw,T18-19,90,90,,75,,180,255,Armenia
1,Hubert Zaręba,M,BD,1999-12-21,Raw,Juniors,67.5,67,,135,,230,365,Poland
1,Szymon Miśkowiec,M,BD,2002-05-06,Raw,Juniors,75,73,,125,250,247.5,372.5,Poland
1,Piotr Kulczak,M,BD,1997-08-12,Raw,Open,100,98.4,,210,,272.5,482.5,Poland
1,Adrian Młynarczyk,M,BD,1992-11-30,Raw,Open,110,105.4,,165,,290,455,Poland
1,Levan Gorgodze,M,BD,1987-01-15,Raw,Open,125,116.4,,215,,260,475,Georgia
2,Ilia Kochlashvili,M,BD,1991-11-01,Raw,Open,125,120.3,,180,,280,460,Georgia
1,Amadeusz Guroś,M,BD,1992-11-04,Raw,Open,140,137.2,,210,,310,520,Poland
1,Johan Liljeblad,M,BD,1989-10-31,Raw,Open,140+,144,,212.5,,327.5,540,Sweden
1,Marcin Sokołowski #2,M,BD,1990-01-06,Raw,Submasters,75,72,,135,,220,355,Poland
1,Temur Absaridze,M,BD,,Raw,Submasters,90,84,,145,,230,375,Georgia
1,Artyom Khugoyan,M,BD,1989-09-10,Raw,Submasters,110,108.5,,197.5,,302.5,500,Armenia
2,Marcus Westerback,M,BD,1984-07-03,Raw,Submasters,110,106.8,,162.5,,240,402.5,Sweden
3,Viktor Teliatnyk,M,BD,1988-04-30,Raw,Submasters,110,101.6,,140,,220,360,Ukraine
1,Irakli Tskhovrebashvili,M,BD,1981-05-10,Raw,M1,100,92,,120,,120,240,Georgia
1,Pawel Stachurski,M,BD,1979-01-10,Raw,M1,110,108.3,,200,,270,470,Poland
2,David Lindstorm,M,BD,1981-05-29,Raw,M1,110,103.1,,115,,230,345,Sweden
1,Hayk Afyan,M,BD,1978-03-20,Raw,M2,100,100,,155,,200,355,Armenia
1,Mieczysłąw Maczka,M,BD,1954-09-11,Raw,M6,82.5,81.5,,115,,165,280,Germany
1,Zbigniew Cabaj,M,BD,1955-04-10,Raw,M6,90,86.2,,130,,205,335,Poland
1,Antoni Kaliňski,M,BD,1953-10-01,Raw,M7,67.5,65.7,,102.5,,130,232.5,Poland
1,Ryszard Śliwiński,M,BD,1950-01-22,Raw,M7,75,73.7,,60,,135,195,Poland
1,Stefan Sochaňski,M,BD,1948-11-17,Raw,M7,82.5,81.1,,72.5,,170,242.5,Poland
1,Andrzej Ratajczyk,M,BD,1953-01-07,Raw,M7,100,97.95,,135,,185,320,Poland
1,Alicja Jaworska,F,B,2007-12-19,Raw,T13-15,67.5,62.6,,45,,,45,Poland
1,Dominika Rajba,F,B,1999-03-30,Raw,Open,67.5,67,,65,,,65,Poland
1,Magdalena Pawelak,F,B,1991-10-28,Raw,Open,75,70,,100,,,100,Poland
1,Dorota Kosińska,F,B,1987-02-06,Raw,Submasters,60,57.6,,60,,,60,Poland
1,Maria Kolasa,F,B,,Raw,Submasters,67.5,64.1,,47.5,,,47.5,Poland
1,Marta Chachuła,F,B,1987-12-07,Raw,Submasters,82.5,76.3,,120,,,120,Poland
1,Małgorzata Kopiec,F,B,1985-11-29,Raw,Submasters,90,83.5,,170,,,170,Poland
1,Joanna Kosik,F,B,1982-07-01,Raw,M1,75,70,131,130,,,130,Poland
1,Liudmyla Vasylyshyn,F,B,1974-08-13,Raw,M2,60,58.7,,77.5,,,77.5,Ukraine
1,Patrycja Mikołajczyk,F,B,1972-04-14,Raw,M3,82.5,77.3,,95,,,95,Poland
1,Bettina Razzouki-Korkis,F,B,1965-08-28,Raw,M4,60,56.3,,82,,,82.5,Poland
1,Brigitte Maczka,F,B,1961-10-05,Raw,M5,67.5,65,,37.5,,,37.5,Germany
1,Kyrylo Kotsaga,M,B,2010-07-21,Raw,T13-15,60,59.7,75,72.5,,,72.5,Ukraine
1,Vahe Apitsaryan,M,B,2009-10-23,Raw,T13-15,100,91,,92.5,,,92.5,Armenia
1,Kamil Knap,M,B,2007-10-24,Raw,T16-17,56,53.7,,75,,,75,Poland
1,Radosław Andreczko,M,B,2006-08-22,Raw,T16-17,82.5,77.3,,115,,,115,Poland
2,Osman Kovalov,M,B,2007-09-12,Raw,T16-17,82.5,80,,110,,,110,Ukraine
DQ,Bartłomiej Kozdrój,M,B,2006-10-30,Raw,T16-17,82.5,81,,,,,,Poland
1,Maciej Poniatowski,M,B,2007-06-24,Raw,T16-17,90,87,157.5,152.5,,,152.5,Poland
1,Sylwester Wołosz,M,B,2005-12-27,Raw,T16-17,100,93,,150,,,150,Poland
2,Klaudiusz Orzechowski,M,B,2006-06-27,Raw,T16-17,100,90.7,,140,,,140,Poland
3,Kacper Kosiński,M,B,2006-12-13,Raw,T16-17,100,95.2,,125,,,125,Poland
1,Volodymyr Galyga,M,B,2005-08-16,Raw,T18-19,75,68.5,,100,,,100,Ukraine
1,Krystian Tuzikowski,M,B,2001-06-19,Raw,Juniors,60,59.9,,115,,,115,Poland
1,Hubert Zaręba,M,B,1999-12-21,Raw,Juniors,67.5,67,,135,,,135,Poland
2,Patryk Wójcik,M,B,,Raw,Juniors,67.5,67.5,132.5,130,,,130,Poland
1,Daniel Filipowicz,M,B,2001-08-22,Raw,Juniors,75,71.5,,135,,,135,Poland
DQ,Damian Miczołek,M,B,,Raw,Juniors,75,74,,,,,,Poland
1,Dawid Dziedzic,M,B,1999-12-12,Raw,Juniors,82.5,81.5,,160,,,160,Poland
2,Kamil Sztuk,M,B,2002-10-22,Raw,Juniors,82.5,81.1,,150,,,150,Poland
1,Pawel Chwalek,M,B,2000-10-13,Raw,Juniors,90,89,,150,,,150,Poland
2,Kacper Janczy,M,B,2003-06-09,Raw,Juniors,90,86.6,,135,,,135,Poland
1,Łukasz Szulborski,M,B,2000-07-04,Raw,Juniors,100,94.6,,160,,,160,Poland
2,Kacper Grabowski,M,B,2003-01-28,Raw,Juniors,100,97.9,,150,,,150,Poland
1,Hubert Bąbrych,M,B,2001-01-10,Raw,Juniors,110,105.1,,200,,,200,Poland
1,Patryk Pikul,M,B,2002-07-21,Raw,Juniors,125,116.2,,185,,,185,Poland
1,Jakub Elgert,M,B,2000-08-21,Raw,Juniors,140,126.5,,217.5,,,217.5,Poland
1,Roman Eremashvili,M,B,1981-05-27,Raw,Open,75,72.5,,225,,,225,Belarus
2,Dawid Kluczyńśki,M,B,1990-11-28,Raw,Open,75,74.4,,162.5,,,162.5,Poland
3,Damian Redzynia,M,B,1993-01-14,Raw,Open,75,74,,160,,,160,Poland
4,Patryk Nabuda,M,B,1998-10-10,Raw,Open,75,74.3,,157.5,,,157.5,Poland
5,Bogusław Ufir,M,B,1993-02-28,Raw,Open,75,69.7,,150,,,150,Poland
1,Vladimir Agasaryan,M,B,1991-10-09,Raw,Open,90,88.5,,205,,,205,Lithuania
2,Michał Krętosz,M,B,1993-01-23,Raw,Open,90,86,,197.5,,,197.5,Poland
1,Jerzy Czajka,M,B,1965-11-01,Raw,M4,90,89.2,,187.5,,,187.5,Poland
3,Amadeusz Plata,M,B,,Raw,Open,90,89.3,,180,,,180,Poland
1,Ákos Oláh,M,B,1989-03-04,Raw,Open,100,97,,225,,,225,Hungary
1,Łukasz Ślósarek,M,B,1987-07-14,Raw,Submasters,100,99,,215,,,215,Poland
2,Piotr Kulczak,M,B,1997-08-12,Raw,Open,100,98.4,,210,,,210,Poland
3,Sedrak Matsakyan,M,B,1995-09-23,Raw,Open,100,100,,182.5,,,182.5,Armenia
7,Patryk Pietrasiak,M,B,1989-11-29,Raw,Submasters,100,95.8,,170,,,170,Poland
1,Adam Moskal,M,B,1996-01-31,Raw,Open,110,108.7,,265,,,265,Hungary
2,Denys Onufriienko,M,B,1987-10-17,Raw,Open,110,108.95,,255,,,255,Ukraine
3,Arkadiusz Redzynia,M,B,1993-01-14,Raw,Open,110,109.2,,245,,,245,Poland
4,Sebastian Kalafarski,M,B,1996-02-09,Raw,Open,110,105.8,,200,,,200,Poland
5,Krystian Fijałkowski,M,B,1992-11-24,Raw,Open,110,105,,195,,,195,Poland
6,Hubert Przybyłek,M,B,1993-08-11,Raw,Open,110,105.7,,195,,,195,Poland
1,Paweł Liszcz,M,B,1978-01-24,Raw,Open,125,112.5,,260,,,260,Poland
2,Levan Gorgodze,M,B,,Raw,Open,125,116.4,,215,,,215,Georgia
1,Adam Łaskawski,M,B,,Raw,Open,140,127.9,,262.5,,,262.5,Poland
2,Amadeusz Guroś,M,B,1992-11-04,Raw,Open,140,137.2,,210,,,210,Poland
1,Dawid Elgert,M,B,1988-12-25,Raw,Open,140+,155,,260,,,260,Poland
2,Daniel Karaszewski,M,B,1991-12-19,Raw,Open,140+,145,,245,,,245,Poland
3,Marcin Karkula,M,B,1982-12-22,Raw,Open,140+,159,,245,,,245,Poland
4,Johan Liljeblad,M,B,1989-10-31,Raw,Open,140+,144,,212.5,,,212.5,Sweden
1,Marcin Sokołowski #2,M,B,1990-01-06,Raw,Submasters,75,72,,135,,,135,Poland
1,Mateusz Pawelak,M,B,1990-10-14,Raw,Submasters,82.5,82.5,,200,,,200,Poland
1,Kamil Kuś,M,B,1990-04-02,Raw,Submasters,90,85.4,,170,,,170,Poland
DQ,Ashot Antonyan,M,B,1986-12-22,Raw,Submasters,90,85,,,,,,Armenia
2,Łukasz Ślósarek,M,B,1987-07-14,Raw,Submasters,100,99,,215,,,215,Poland
3,Daniel Białas,M,B,1987-05-27,Raw,Submasters,100,96,,195,,,195,Poland
4,Paweł Niesatki,M,B,1989-01-01,Raw,Submasters,100,95,,190,,,190,Poland
5,Konrad Lucimiński,M,B,1989-08-14,Raw,Submasters,100,94.7,,175,,,175,Poland
6,Łukasz Kolasa,M,B,1988-09-02,Raw,Submasters,100,97.6,,172.5,,,172.5,Poland
8,Patryk Pietrasiak,M,B,1989-11-29,Raw,Submasters,100,95.8,,170,,,170,Poland
1,Artyom Khugoyan,M,B,1989-09-10,Raw,Submasters,110,108.5,,197.5,,,197.5,Armenia
2,Arkadiusz Druzgała,M,B,1990-02-20,Raw,Submasters,110,104,,180,,,180,Poland
3,Mariusz Małkowski,M,B,1987-01-23,Raw,Submasters,110,104,,160,,,160,Poland
1,Marek Knap,M,B,1979-10-03,Raw,M1,75,71.4,,115,,,115,Poland
1,Stanisław Gąsienica-Samek,M,B,1983-04-30,Raw,M1,82.5,81.8,,180,,,180,Poland
2,Sebastian Niedziela,M,B,1979-04-02,Raw,M1,82.5,82.5,,175,,,175,Poland
3,Paweł Kubacki,M,B,1979-07-03,Raw,M1,82.5,80.3,,170,,,170,Poland
1,Piotr Jezierski-Smyka,M,B,1983-10-12,Raw,M1,90,85.2,,155,,,155,Poland
1,Arkadiusz Macudziński,M,B,1980-08-19,Raw,M1,100,98.1,,172.5,,,172.5,Poland
1,Pawel Stachurski,M,B,1979-01-10,Raw,M1,110,108.3,,200,,,200,Poland
1,Marek Sadowski,M,B,1979-06-17,Raw,M1,125,115.5,,217.5,,,217.5,Poland
2,Michal Kráľ,M,B,1982-03-18,Raw,M1,125,111.7,,170,,,170,Slovakia
1,Milan Mrázek,M,B,1979-02-13,Raw,M1,140+,150,,245,,,245,Czechia
1,Pavel Vechter,M,B,1976-08-16,Raw,M2,75,74,,135,,,135,Slovakia
1,Sławomir Jasica,M,B,1977-09-22,Raw,M2,90,88.5,,170,,,170,Poland
1,Rafał Makowski,M,B,1978-09-11,Raw,M2,100,97.3,,220,,,220,Poland
2,Denys Kovalov,M,B,1978-08-01,Raw,M2,100,99,,195,,,195,Ukraine
4,Hayk Afyan,M,B,1978-03-20,Raw,M2,100,100,,155,,,155,Armenia
1,Paweł Fus,M,B,1977-10-05,Raw,M2,110,108.2,,172.5,,,172.5,Poland
3,Andrzej Juraszek,M,B,1977-11-30,Raw,M2,100,95,,165,,,165,Poland
1,Krzysztof Halczyk,M,B,1974-12-15,Raw,M2,140,127,,172.5,,,172.5,Poland
1,Marcin Czaja,M,B,1976-04-06,Raw,M2,140+,140.5,,180,,,180,Poland
1,Robert Cabała,M,B,,Raw,M3,90,87,,165,,,165,Poland
1,Hovhannes Yazichyan,M,B,1971-05-08,Raw,M3,100,96,,200,,,200,Poland
1,Tomasz Prętkiewicz,M,B,1973-04-09,Raw,M3,125,125,,170,,,170,Poland
1,Grzegorz Kantor,M,B,1972-01-19,Raw,M3,140,137,,170,,,170,Poland
1,Piotr Jurkiewicz,M,B,1966-06-10,Raw,M4,75,74.8,,117.5,,,117.5,Poland
1,Robert Sielicki,M,B,1964-10-29,Raw,M4,82.5,81.1,,102.5,,,102.5,UK
2,Jerzy Czajka,M,B,1965-11-01,Raw,M4,90,89.2,,187,,,187,Poland
1,Piotr Strzała,M,B,1966-11-03,Raw,M4,110,101.3,,180,,,180,Poland
1,Adam Ubertowski,M,B,1967-02-19,Raw,M4,125,123.5,180,160,,,160,Poland
1,Tahvo Jauhojärvi,M,B,1961-12-08,Raw,M5,75,73.2,,140,,,140,Sweden
1,Mirosław Urbaniak,M,B,1961-04-06,Raw,M5,90,88,,157.5,,,157.5,Poland
2,Krzysztof Kozielski,M,B,1962-07-18,Raw,M5,90,88.8,,125,,,125,Poland
1,Marek Strzałkowski,M,B,1959-10-30,Raw,M5,100,91.7,152.5,150,,,150,Poland
1,Krzysztof Kłopocki,M,B,1959-04-10,Raw,M5,110,105,,188,,,188,Poland
1,Mieczysłąw Maczka,M,B,1954-09-11,Raw,M6,82.5,81.5,,115,,,115,Germany
1,Zbigniew Cabaj,M,B,1955-04-10,Raw,M6,90,86.2,,130,,,130,Poland
1,Hans Hellsten,M,B,1958-09-20,Raw,M6,100,97.3,,102.5,,,102.5,Sweden
1,Ryszard Wilczak,M,B,1955-10-26,Raw,M6,110,101.2,,140,,,140,Poland
1,Henryk Świerzy,M,B,1956-03-08,Raw,M6,125,110.1,160,157.5,,,157.5,Poland
1,Antoni Kaliňski,M,B,1953-10-01,Raw,M7,67.5,65.7,,102.5,,,102.5,Poland
1,Stefan Sochaňski,M,B,1948-11-17,Raw,M7,82.5,81.1,,72.5,,,72.5,Poland
2,Wiesław Ostrowski,M,B,1948-03-21,Raw,M7,90,86,,137,,,137,Poland
1,Kazimierz Tamiłowski,M,B,1948-02-02,Raw,M7,90,86.3,,137.5,,,137.5,Poland
1,Stanisław Gąsienica-Samek,M,B,1983-04-30,Raw,MPF,82.5,81.8,,180,,,180,Poland
2,Mieczysłąw Maczka,M,B,1954-09-11,Raw,MPF,82.5,81.5,,115,,,115,Germany
3,Stefan Sochaňski,M,B,1948-11-17,Raw,MPF,82.5,81.1,,72.5,,,72.5,Poland
1,Sedrak Matsakyan,M,B,1995-09-23,Raw,MPF,100,100,,182.5,,,182.5,Armenia
2,Kacper Kosiński,M,B,2006-12-13,Raw,MPF,100,95.2,,125,,,125,Poland
1,Marek Sadowski,M,B,1979-06-17,Raw,MPF,125,115.5,,217.5,,,217.5,Poland
1,Jakub Elgert,M,B,2000-08-21,Raw,MPF,140,126.5,,217.5,,,217.5,Poland
1,Krystian Tuzikowski,M,B,2001-06-19,Raw,Paralympics,60,59.9,,115,,,115,Poland
1,Marek Strzałkowski,M,B,1959-10-30,Raw,Paralympics,100,91.7,152.5,150,,,150,Poland
1,Marcel Vasilenko,M,B,1979-05-15,Single-ply,M1,100,96,,180,,,180,Slovakia
DQ,Irakli Tskhovrebashvili,M,B,,Single-ply,M1,100,92,,,,,,Georgia
1,Tahvo Jauhojärvi,M,B,1961-12-08,Single-ply,M5,75,73.2,,170,,,170,Sweden
1,Mieczysłąw Maczka,M,B,1954-09-11,Single-ply,M6,82.5,81.5,,115,,,115,Germany
1,Stefan Sochaňski,M,B,1948-11-17,Single-ply,M7,82.5,81.1,,85,,,85,Poland
1,Kazimierz Tamiłowski,M,B,1948-02-02,Single-ply,M7,90,86.3,,155,,,155,Poland
1,Mieczysłąw Maczka,M,B,1954-09-11,Single-ply,MPF,82.5,81.5,,115,,,115,Germany
2,Stefan Sochaňski,M,B,1948-11-17,Single-ply,MPF,82.5,81.1,,85,,,85,Poland
1,Maksymilian Lubosik,M,B,1998-09-23,Multi-ply,Open,82.5,78.8,,230,,,230,Poland
1,Bogusław Ufir,M,B,1993-02-28,Unlimited,Open,75,69.7,256,255,,,255,Poland
1,Sebastian Dąbrowski,M,B,1980-07-02,Unlimited,Open,100,94,,372.5,,,372.5,Poland
1,Artur Redestowicz,M,B,1974-12-18,Unlimited,Open,110,107.8,,340,,,340,Poland
2,Lukasz Kaim,M,B,1988-02-14,Unlimited,Open,110,102,,320,,,320,Poland
3,Krystian Fijałkowski,M,B,1992-11-24,Unlimited,Open,110,105,,310,,,310,Poland
4,Tomasz Wyrwisz,M,B,1987-05-03,Unlimited,Open,110,101,,300,,,300,Poland
5,Marcin Kopiec,M,B,1991-07-16,Unlimited,Open,110,108.6,,255,,,255,Poland
6,Hubert Przybyłek,M,B,1993-08-11,Unlimited,Open,110,105.7,,240,,,240,Poland
1,Ilia Kochlashvili,M,B,,Unlimited,Open,125,120.3,,270,,,270,Georgia
1,Robert Wiejas,M,B,1977-05-26,Unlimited,Open,140,136.2,,325,,,325,Poland
1,Dawid Elgert,M,B,1988-12-25,Unlimited,Open,140+,155,,400,,,400,Poland
1,Bartłomiej Gaweł,M,B,1980-09-26,Unlimited,M1,75,73.2,,255,,,255,Poland
1,Sebastian Niedziela,M,B,1979-04-02,Unlimited,M1,82.5,82.5,,250,,,250,Poland
1,Seweryn Bania,M,B,1983-10-02,Unlimited,M1,110,106.8,,301,,,301,Poland
1,Jozef Harandza,M,B,1982-05-20,Unlimited,M1,125,113.5,,340,,,340,Slovakia
1,Ilia Kochlashvili,M,B,,Unlimited,MPF,125,120.3,,270,,,270,Georgia
1,Weronika Zaprzałka,F,D,2006-06-08,Raw,T16-17,52,51.3,,,117.5,115.5,115.5,Poland
1,Lilien Pacova,F,D,2006-07-11,Raw,T16-17,67.5,62,,,,135,135,Slovakia
1,Natalia Soboń,F,D,1995-08-19,Raw,Open,52,51.2,,,,150,150,Poland
1,Zuzanna Kulczak,F,D,1999-05-09,Raw,Open,67.5,65.1,,,,160,160,Poland
1,Alla Mirzoyan,F,D,1996-04-02,Raw,Open,75,72,,,,157.5,157.5,Armenia
1,Bettina Razzouki-Korkis,F,D,1965-08-28,Raw,M4,60,56.3,,,,151,151,Poland
1,Brigitte Maczka,F,D,1961-10-05,Raw,M5,67.5,65,,,,105,105,Germany
1,Květuše Baranovičová,F,D,1953-03-12,Raw,M7,67.5,62,,,100,90,90,Slovakia
1,Artyom Galstyan,M,D,2009-06-09,Raw,T13-15,48,44.5,,,,110,110,Armenia
1,Alik Khachatryan,M,D,2008-02-02,Raw,T13-15,60,59.8,,,,140,140,Armenia
1,Bartosz Damek,M,D,2008-03-19,Raw,T13-15,75,73.3,,,212.5,210,210,Poland
1,Hubert Wójcikiewicz,M,D,2007-12-22,Raw,T13-15,82.5,82,,,,215,215,Poland
1,Adam Krzyszycha,M,D,2007-09-16,Raw,T16-17,75,74.5,,,,230,230,Poland
2,Artur Vardanyan,M,D,2006-01-08,Raw,T16-17,75,72.5,,,,195,195,Armenia
1,Paweł Ludwin,M,D,2006-07-19,Raw,T16-17,82.5,79.9,,,,185,185,Poland
1,Maciej Pyznar,M,D,2006-09-13,Raw,T16-17,90,85.4,,,220,210,210,Poland
1,Kacper Gumularz,M,D,2004-08-05,Raw,T18-19,90,87.2,,,,250,250,Poland
2,Artak Avetisyan,M,D,2005-10-17,Raw,T18-19,90,90,,,,180,180,Armenia
1,Kiryl Kananchuck,M,D,2005-06-20,Raw,T18-19,100,92.6,,,,160,160,Poland
1,Jakub Sikora,M,D,2002-10-15,Raw,Juniors,67.5,65.2,,,,180,180,Poland
1,Szymon Miśkowiec,M,D,2002-05-06,Raw,Juniors,75,73,,,250,247.5,247.5,Poland
1,Paweł Drzyzga,M,D,2001-06-04,Raw,Juniors,82.5,82.4,,,,290,290,Poland
2,Arkadiusz Borek,M,D,2001-04-04,Raw,Juniors,82.5,81,,,,260,260,Poland
3,Dawid Malec,M,D,2001-09-02,Raw,Juniors,82.5,81,,,,230,230,Poland
4,Bartłomiej Leń,M,D,2002-06-03,Raw,Juniors,82.5,80,,,,220,220,Poland
1,Seyran Abrahamyan,M,D,1996-10-10,Raw,Open,56,56,,,,180,180,Armenia
1,Sebastian Bojdo,M,D,1999-09-13,Raw,Open,82.5,81,,,,265,265,Poland
1,Patryk Pietrasiak,M,D,1989-11-29,Raw,Submasters,100,95.8,,,,290,290,Poland
1,Sedrak Matsakyan,M,D,1995-09-23,Raw,Open,100,100,,,,225,225,Armenia
1,Amadeusz Guroś,M,D,1992-11-04,Raw,Open,140,137.2,,,,310,310,Poland
1,Johan Liljeblad,M,D,1989-10-31,Raw,Open,140+,144,,,,327.5,327.5,Sweden
1,Mariusz Łydziński,M,D,1990-01-25,Raw,Submasters,75,73.5,,,,242.5,242.5,Poland
2,Marcin Sokołowski #2,M,D,1990-01-06,Raw,Submasters,75,72,,,,220,220,Poland
1,Przemysław Klimko,M,D,1984-02-16,Raw,Submasters,82.5,76.6,,,,200,200,Poland
1,Konrad Kosiński,M,D,1985-02-26,Raw,Submasters,90,86.2,,,,220,220,Poland
2,Patryk Pietrasiak,M,D,1989-11-29,Raw,Submasters,100,95.8,,,,290,290,Poland
3,Łukasz Kolasa,M,D,1988-09-02,Raw,Submasters,100,97.6,,,,250,250,Poland
1,Kamil Kargul,M,D,1985-10-26,Raw,Submasters,110,107.9,,,,330,330,Poland
2,Artyom Khugoyan,M,D,1989-09-10,Raw,Submasters,110,108.5,,,,302.5,302.5,Armenia
1,Tomasz Miloch,M,D,1983-09-17,Raw,M1,82.5,78.4,,,,220,220,Poland
1,Mateusz Dziura,M,D,1980-07-03,Raw,M1,110,101,,,301,285,285,Poland
2,Pawel Stachurski,M,D,1979-01-10,Raw,M1,110,108.3,,,,270,270,Poland
1,Michal Kráľ,M,D,1982-03-18,Raw,M1,125,111.7,,,,210,210,Slovakia
1,Wiesław Kiwacki,M,D,1976-11-11,Raw,M2,75,71.7,,,,220,220,Poland
1,Niclas Friberg,M,D,1974-01-10,Raw,M2,90,88.6,,,,232.5,232.5,Sweden
2,Karen Hovhannisyan,M,D,1978-01-01,Raw,M2,90,87.2,,,,205,205,Armenia
1,Paweł Fus,M,D,1977-10-05,Raw,M2,110,108.2,,,,200,200,Poland
1,Milan Páleník,M,D,1970-12-11,Raw,M3,100,94,,,,190,190,Slovakia
1,Davit Grigoryan,M,D,1967-04-25,Raw,M4,82.5,82,,,,150,150,Armenia
1,Karol Kornel Repiský,M,D,1964-06-26,Raw,M4,140,125.8,,,,230,230,Slovakia
1,Mieczysłąw Maczka,M,D,1954-09-11,Raw,M6,82.5,81.5,,,,165,165,Germany
1,Zbigniew Cabaj,M,D,1955-04-10,Raw,M6,90,86.2,,,,205,205,Poland
2,Ireneusz Czupryn,M,D,1955-10-01,Raw,M6,90,84.5,,,,190,190,Poland
1,Hans Hellsten,M,D,1958-09-20,Raw,M6,100,97.3,,,,240,240,Sweden
1,Antoni Kaliňski,M,D,1953-10-01,Raw,M7,67.5,65.7,,,,130,130,Poland
1,Ryszard Śliwiński,M,D,1950-01-22,Raw,M7,75,73.7,,,,135,135,Poland
1,Jan Łuka,M,D,1949-06-07,Raw,M7,82.5,81.3,,,,220,220,Poland
2,Stefan Sochaňski,M,D,1948-11-17,Raw,M7,82.5,81.1,,,,170,170,Poland
3,Jozef Bartek,M,D,1945-03-06,Raw,M7,82.5,79.5,,,,90,90,Slovakia
1,Józef Bejgrowicz,M,D,1952-09-24,Raw,M7,90,83,,,,220,220,Poland
1,Mariusz Łydziński,M,D,1990-01-25,Raw,MPF,75,73.5,,,,242.5,242.5,Poland
